{"failedCount":1,"prefixedPath":"classpath:examples\/users\/user.feature","packageQualifiedName":"examples.users.user","loopIndex":-1,"relativePath":"examples\/users\/user.feature","scenarioResults":[{"sectionIndex":0,"stepResults":[{"result":{"nanos":55840700,"millis":55.8407,"status":"passed"},"step":{"background":true,"line":4,"prefix":"*","index":0,"text":"url 'https:\/\/reqres.in\/api'"}},{"result":{"nanos":10364700,"millis":10.3647,"status":"passed"},"step":{"line":7,"prefix":"Given","index":0,"text":"path 'users', 2"}},{"result":{"nanos":452977900,"millis":452.9779,"status":"passed"},"step":{"line":8,"prefix":"When","index":1,"text":"method get"},"stepLog":"20:06:34.802 request:\n1 > GET https:\/\/reqres.in\/api\/users\/2\n1 > Host: reqres.in\n1 > Connection: Keep-Alive\n1 > User-Agent: Apache-HttpClient\/4.5.13 (Java\/17.0.8)\n1 > Accept-Encoding: gzip,deflate\n\n\n20:06:34.998 response time in milliseconds: 195\n1 < 200\n1 < Date: Fri, 28 Jun 2024 01:06:34 GMT\n1 < Content-Type: application\/json; charset=utf-8\n1 < Transfer-Encoding: chunked\n1 < Connection: keep-alive\n1 < Report-To: {\"group\":\"heroku-nel\",\"max_age\":3600,\"endpoints\":[{\"url\":\"https:\/\/nel.heroku.com\/reports?ts=1719286156&sid=c4c9725f-1ab0-44d8-820f-430df2718e11&s=%2BRmXjppmWvvNQmFZF7BVPmWoc5l%2FU%2Bfd%2BDVHxgNL4O8%3D\"}]}\n1 < Reporting-Endpoints: heroku-nel=https:\/\/nel.heroku.com\/reports?ts=1719286156&sid=c4c9725f-1ab0-44d8-820f-430df2718e11&s=%2BRmXjppmWvvNQmFZF7BVPmWoc5l%2FU%2Bfd%2BDVHxgNL4O8%3D\n1 < Nel: {\"report_to\":\"heroku-nel\",\"max_age\":3600,\"success_fraction\":0.005,\"failure_fraction\":0.05,\"response_headers\":[\"Via\"]}\n1 < X-Powered-By: Express\n1 < Access-Control-Allow-Origin: *\n1 < Etag: W\/\"118-pbdwwFo9SKNhD3Lx5iHJyngpq00\"\n1 < Via: 1.1 vegur\n1 < Cache-Control: max-age=14400\n1 < CF-Cache-Status: HIT\n1 < Age: 86\n1 < Vary: Accept-Encoding\n1 < Server: cloudflare\n1 < CF-RAY: 89a9c667bbe7a9df-UIO\n{\"data\":{\"id\":2,\"email\":\"janet.weaver@reqres.in\",\"first_name\":\"Janet\",\"last_name\":\"Weaver\",\"avatar\":\"https:\/\/reqres.in\/img\/faces\/2-image.jpg\"},\"support\":{\"url\":\"https:\/\/reqres.in\/#support-heading\",\"text\":\"To keep ReqRes free, contributions towards server costs are appreciated!\"}}\n\n"},{"result":{"nanos":23600,"millis":0.0236,"status":"passed"},"step":{"line":9,"prefix":"Then","index":2,"text":"status 200"}},{"result":{"nanos":31278100,"millis":31.2781,"status":"passed"},"step":{"line":10,"prefix":"And","index":3,"text":"match response.data.id == 2"}}],"executorName":"main","line":6,"name":"Consult a user by ID","description":"","durationMillis":550.485,"startTime":1719536794494,"failed":false,"refId":"[1:6]","endTime":1719536795055,"exampleIndex":-1},{"sectionIndex":1,"stepResults":[{"result":{"nanos":497700,"millis":0.4977,"status":"passed"},"step":{"background":true,"line":4,"prefix":"*","index":0,"text":"url 'https:\/\/reqres.in\/api'"}},{"result":{"nanos":598500,"millis":0.5985,"status":"passed"},"step":{"line":13,"prefix":"Given","index":0,"text":"path 'users', 2"}},{"result":{"nanos":3668100,"millis":3.6681,"status":"passed"},"step":{"line":14,"prefix":"And","index":1,"text":"request { name: 'David Paez', job: 'QA Engineer' }"}},{"result":{"nanos":508320000,"millis":508.32,"status":"passed"},"step":{"line":15,"prefix":"When","index":2,"text":"method put"},"stepLog":"20:06:35.097 request:\n1 > PUT https:\/\/reqres.in\/api\/users\/2\n1 > Content-Type: application\/json; charset=UTF-8\n1 > Content-Length: 41\n1 > Host: reqres.in\n1 > Connection: Keep-Alive\n1 > User-Agent: Apache-HttpClient\/4.5.13 (Java\/17.0.8)\n1 > Accept-Encoding: gzip,deflate\n{\"name\":\"David Paez\",\"job\":\"QA Engineer\"}\n\n20:06:35.577 response time in milliseconds: 480\n1 < 200\n1 < Date: Fri, 28 Jun 2024 01:06:35 GMT\n1 < Content-Type: application\/json; charset=utf-8\n1 < Transfer-Encoding: chunked\n1 < Connection: keep-alive\n1 < Report-To: {\"group\":\"heroku-nel\",\"max_age\":3600,\"endpoints\":[{\"url\":\"https:\/\/nel.heroku.com\/reports?ts=1719536795&sid=c4c9725f-1ab0-44d8-820f-430df2718e11&s=kJDFbkn5DTNFNJ85ZdU5I%2B7N90pFc7bZ5b1%2BZZ6vdjE%3D\"}]}\n1 < Reporting-Endpoints: heroku-nel=https:\/\/nel.heroku.com\/reports?ts=1719536795&sid=c4c9725f-1ab0-44d8-820f-430df2718e11&s=kJDFbkn5DTNFNJ85ZdU5I%2B7N90pFc7bZ5b1%2BZZ6vdjE%3D\n1 < Nel: {\"report_to\":\"heroku-nel\",\"max_age\":3600,\"success_fraction\":0.005,\"failure_fraction\":0.05,\"response_headers\":[\"Via\"]}\n1 < X-Powered-By: Express\n1 < Access-Control-Allow-Origin: *\n1 < Etag: W\/\"50-lKQx5vtKue3Ga8vdVEFFeqfbEOY\"\n1 < Via: 1.1 vegur\n1 < CF-Cache-Status: DYNAMIC\n1 < Vary: Accept-Encoding\n1 < Server: cloudflare\n1 < CF-RAY: 89a9c668af3ea9e6-UIO\n{\"name\":\"David Paez\",\"job\":\"QA Engineer\",\"updatedAt\":\"2024-06-28T01:06:35.334Z\"}\n\n"},{"result":{"nanos":8000,"millis":0.008,"status":"passed"},"step":{"line":16,"prefix":"Then","index":3,"text":"status 200"}},{"result":{"nanos":1331200,"millis":1.3312,"status":"passed"},"step":{"line":17,"prefix":"And","index":4,"text":"match response.name == 'David Paez'"}},{"result":{"nanos":820000,"millis":0.82,"status":"passed"},"step":{"line":18,"prefix":"And","index":5,"text":"match response.job == 'QA Engineer'"}}],"executorName":"main","line":12,"name":"Update a user's details","description":"","durationMillis":515.2435,"startTime":1719536795064,"failed":false,"refId":"[2:12]","endTime":1719536795580,"exampleIndex":-1},{"sectionIndex":2,"stepResults":[{"result":{"nanos":179900,"millis":0.1799,"status":"passed"},"step":{"background":true,"line":4,"prefix":"*","index":0,"text":"url 'https:\/\/reqres.in\/api'"}},{"result":{"nanos":184500,"millis":0.1845,"status":"passed"},"step":{"line":21,"prefix":"Given","index":0,"text":"path 'users', 2"}},{"result":{"nanos":469556300,"millis":469.5563,"status":"passed"},"step":{"line":22,"prefix":"When","index":1,"text":"method delete"},"stepLog":"20:06:35.586 request:\n1 > DELETE https:\/\/reqres.in\/api\/users\/2\n1 > Host: reqres.in\n1 > Connection: Keep-Alive\n1 > User-Agent: Apache-HttpClient\/4.5.13 (Java\/17.0.8)\n1 > Accept-Encoding: gzip,deflate\n\n\n20:06:36.054 response time in milliseconds: 468\n1 < 204\n1 < Date: Fri, 28 Jun 2024 01:06:35 GMT\n1 < Content-Length: 0\n1 < Connection: keep-alive\n1 < Report-To: {\"group\":\"heroku-nel\",\"max_age\":3600,\"endpoints\":[{\"url\":\"https:\/\/nel.heroku.com\/reports?ts=1719536795&sid=c4c9725f-1ab0-44d8-820f-430df2718e11&s=kJDFbkn5DTNFNJ85ZdU5I%2B7N90pFc7bZ5b1%2BZZ6vdjE%3D\"}]}\n1 < Reporting-Endpoints: heroku-nel=https:\/\/nel.heroku.com\/reports?ts=1719536795&sid=c4c9725f-1ab0-44d8-820f-430df2718e11&s=kJDFbkn5DTNFNJ85ZdU5I%2B7N90pFc7bZ5b1%2BZZ6vdjE%3D\n1 < Nel: {\"report_to\":\"heroku-nel\",\"max_age\":3600,\"success_fraction\":0.005,\"failure_fraction\":0.05,\"response_headers\":[\"Via\"]}\n1 < X-Powered-By: Express\n1 < Access-Control-Allow-Origin: *\n1 < Etag: W\/\"2-vyGp6PvFo4RvsFtPoIWeCReyIC8\"\n1 < Via: 1.1 vegur\n1 < CF-Cache-Status: DYNAMIC\n1 < Server: cloudflare\n1 < CF-RAY: 89a9c66baadfa9e6-UIO\n\n\n"},{"result":{"nanos":12900,"millis":0.0129,"status":"passed"},"step":{"line":23,"prefix":"Then","index":2,"text":"status 204"}}],"executorName":"main","line":20,"name":"Delete a user","description":"","durationMillis":469.9336,"startTime":1719536795585,"failed":false,"refId":"[3:20]","endTime":1719536796055,"exampleIndex":-1},{"sectionIndex":3,"stepResults":[{"result":{"nanos":185500,"millis":0.1855,"status":"passed"},"step":{"background":true,"line":4,"prefix":"*","index":0,"text":"url 'https:\/\/reqres.in\/api'"}},{"result":{"nanos":446200,"millis":0.4462,"status":"passed"},"step":{"line":26,"prefix":"*","index":0,"text":"configure afterScenario = 'karate.delay(3000)'"}},{"result":{"nanos":237700,"millis":0.2377,"status":"passed"},"step":{"line":27,"prefix":"Given","index":1,"text":"path 'users?page=2'"}},{"result":{"nanos":33175400,"millis":33.1754,"status":"passed"},"step":{"line":28,"prefix":"When","index":2,"text":"method get"},"stepLog":"20:06:36.063 request:\n1 > GET https:\/\/reqres.in\/api\/users%3Fpage=2\n1 > Host: reqres.in\n1 > Connection: Keep-Alive\n1 > User-Agent: Apache-HttpClient\/4.5.13 (Java\/17.0.8)\n1 > Accept-Encoding: gzip,deflate\n\n\n20:06:36.094 response time in milliseconds: 31\n1 < 200\n1 < Date: Fri, 28 Jun 2024 01:06:35 GMT\n1 < Content-Type: application\/json; charset=utf-8\n1 < Transfer-Encoding: chunked\n1 < Connection: keep-alive\n1 < Report-To: {\"group\":\"heroku-nel\",\"max_age\":3600,\"endpoints\":[{\"url\":\"https:\/\/nel.heroku.com\/reports?ts=1719451666&sid=c4c9725f-1ab0-44d8-820f-430df2718e11&s=T5vDpXaVSMGUXnFFqGTA3TboMC%2FV9eD3rx8sK78zHIc%3D\"}]}\n1 < Reporting-Endpoints: heroku-nel=https:\/\/nel.heroku.com\/reports?ts=1719451666&sid=c4c9725f-1ab0-44d8-820f-430df2718e11&s=T5vDpXaVSMGUXnFFqGTA3TboMC%2FV9eD3rx8sK78zHIc%3D\n1 < Nel: {\"report_to\":\"heroku-nel\",\"max_age\":3600,\"success_fraction\":0.005,\"failure_fraction\":0.05,\"response_headers\":[\"Via\"]}\n1 < X-Powered-By: Express\n1 < Access-Control-Allow-Origin: *\n1 < Etag: W\/\"2c1-N6Rqerxquq2kgQhL51EiSg4x0R8\"\n1 < Via: 1.1 vegur\n1 < Cache-Control: max-age=14400\n1 < CF-Cache-Status: HIT\n1 < Age: 85\n1 < Vary: Accept-Encoding\n1 < Server: cloudflare\n1 < CF-RAY: 89a9c66e9d55a9e0-UIO\n{\"page\":1,\"per_page\":6,\"total\":12,\"total_pages\":2,\"data\":[{\"id\":1,\"name\":\"cerulean\",\"year\":2000,\"color\":\"#98B2D1\",\"pantone_value\":\"15-4020\"},{\"id\":2,\"name\":\"fuchsia rose\",\"year\":2001,\"color\":\"#C74375\",\"pantone_value\":\"17-2031\"},{\"id\":3,\"name\":\"true red\",\"year\":2002,\"color\":\"#BF1932\",\"pantone_value\":\"19-1664\"},{\"id\":4,\"name\":\"aqua sky\",\"year\":2003,\"color\":\"#7BC4C4\",\"pantone_value\":\"14-4811\"},{\"id\":5,\"name\":\"tigerlily\",\"year\":2004,\"color\":\"#E2583E\",\"pantone_value\":\"17-1456\"},{\"id\":6,\"name\":\"blue turquoise\",\"year\":2005,\"color\":\"#53B0AE\",\"pantone_value\":\"15-5217\"}],\"support\":{\"url\":\"https:\/\/reqres.in\/#support-heading\",\"text\":\"To keep ReqRes free, contributions towards server costs are appreciated!\"}}\n\n"},{"result":{"nanos":9700,"millis":0.0097,"status":"passed"},"step":{"line":29,"prefix":"Then","index":3,"text":"status 200"}},{"result":{"nanos":12549600,"millis":12.5496,"status":"passed"},"step":{"line":30,"prefix":"*","index":4,"text":"def users = response.data"}},{"result":{"nanos":38778000,"millis":38.778,"status":"passed"},"step":{"line":31,"prefix":"*","index":5,"text":"def userExists = karate.filter(users, function(x){ return x.id == 2 }).length == 0"}},{"result":{"nanos":1287200,"errorMessage":"match failed: EQUALS\n  $ | not equal (BOOLEAN:BOOLEAN)\n  false\n  true\n\nclasspath:examples\/users\/user.feature:32","millis":1.2872,"status":"failed"},"step":{"line":32,"prefix":"*","index":6,"text":"match userExists == true"},"stepLog":"20:06:36.148 classpath:examples\/users\/user.feature:32\n* match userExists == true\nmatch failed: EQUALS\n  $ | not equal (BOOLEAN:BOOLEAN)\n  false\n  true\n\nclasspath:examples\/users\/user.feature:32\n"}],"line":25,"description":"","durationMillis":86.6693,"failed":true,"error":"match failed: EQUALS\n  $ | not equal (BOOLEAN:BOOLEAN)\n  false\n  true\n\nclasspath:examples\/users\/user.feature:32","executorName":"main","name":"Verify user deletion","startTime":1719536796061,"refId":"[4:25]","endTime":1719536796148,"exampleIndex":-1}],"callDepth":0,"name":"User Management API","description":"","resultDate":"2024-06-27 08:06:36 PM","durationMillis":1622.3314,"passedCount":3}